…
    ## # A tibble: 5 × 1
    ##   county  
    ##   <chr>   
    ## 1 Bronx   
    ## 2 Kings   
    ## 3 New York
    ## 4 Queens  
    ## 5 Richmond

``` r
zip_code_data |> distinct(zip_code)
```

    ## # A tibble: 320 × 1
    ##    zip_code
    ##       <int>
    ##  1    10451
    ##  2    10452
    ##  3    10453
    ##  4    10454
    ##  5    10455
    ##  6    10456
    ##  7    10457
    ##  8    10458
    ##  9    10459
    ## 10    10460
    ## # ℹ 310 more rows
…
``` r
zip_code_data <- zip_code_data %>%
  mutate(borough = case_when(
    county == "Bronx" ~ "Bronx County",
    county == "Kings" ~ "Kings County",
    county == "Richmond" ~ "Richmond County",
    county == "Queens" ~ "Queens County",
    county == "New York" ~ "New York County"
  )) |>
  select(zip_code,borough,neighborhood)

zip_code_data
```

    ## # A tibble: 322 × 3
    ##    zip_code borough      neighborhood              
    ##       <int> <chr>        <chr>                     
    ##  1    10451 Bronx County High Bridge and Morrisania
    ##  2    10452 Bronx County High Bridge and Morrisania
    ##  3    10453 Bronx County Central Bronx             
    ##  4    10454 Bronx County Hunts Point and Mott Haven
    ##  5    10455 Bronx County Hunts Point and Mott Haven
    ##  6    10456 Bronx County High Bridge and Morrisania
    ##  7    10457 Bronx County Central Bronx             
    ##  8    10458 Bronx County Bronx Park and Fordham    
    ##  9    10459 Bronx County Hunts Point and Mott Haven
    ## 10    10460 Bronx County Central Bronx             
    ## # ℹ 312 more rows
…
    ## Rows: 149 Columns: 125
    ## ── Column specification ────────────────────────────────────────────────────────
    ## Delimiter: ","
    ## chr   (6): RegionType, StateName, State, City, Metro, CountyName
    ## dbl (119): RegionID, SizeRank, RegionName, 2015-01-31, 2015-02-28, 2015-03-3...
    ## 
    ## ℹ Use `spec()` to retrieve the full column specification for this data.
    ## ℹ Specify the column types or set `show_col_types = FALSE` to quiet this message.

``` r
rental_data
```

    ## # A tibble: 149 × 125
    ##    RegionID SizeRank RegionName RegionType StateName State City     Metro       
    ##       <dbl>    <dbl>      <dbl> <chr>      <chr>     <chr> <chr>    <chr>       
    ##  1    62080        4      11368 zip        NY        NY    New York New York-Ne…
    ##  2    62093        7      11385 zip        NY        NY    New York New York-Ne…
    ##  3    62019        9      11208 zip        NY        NY    New York New York-Ne…
    ##  4    62046       16      11236 zip        NY        NY    New York New York-Ne…
    ##  5    61807       17      10467 zip        NY        NY    New York New York-Ne…
    ##  6    62085       18      11373 zip        NY        NY    New York New York-Ne…
    ##  7    62037       19      11226 zip        NY        NY    New York New York-Ne…
    ##  8    62018       20      11207 zip        NY        NY    New York New York-Ne…
    ##  9    61639       29      10025 zip        NY        NY    New York New York-Ne…
    ## 10    62025       32      11214 zip        NY        NY    New York New York-Ne…
    ## # ℹ 139 more rows
    ## # ℹ 117 more variables: CountyName <chr>, `2015-01-31` <dbl>,
    ## #   `2015-02-28` <dbl>, `2015-03-31` <dbl>, `2015-04-30` <dbl>,
    ## #   `2015-05-31` <dbl>, `2015-06-30` <dbl>, `2015-07-31` <dbl>,
    ## #   `2015-08-31` <dbl>, `2015-09-30` <dbl>, `2015-10-31` <dbl>,
    ## #   `2015-11-30` <dbl>, `2015-12-31` <dbl>, `2016-01-31` <dbl>,
    ## #   `2016-02-29` <dbl>, `2016-03-31` <dbl>, `2016-04-30` <dbl>, …
…
``` r
date_cols_rental <- colnames(rental_data)[grepl("^\\d{4}-\\d{2}-\\d{2}$",colnames(rental_data))]

rental_data_long <- rental_data %>%
  pivot_longer(cols = all_of(date_cols_rental), 
               names_to = "date", 
               values_to = "rental_price") %>%
  mutate(date = ymd(date)) |>
  janitor::clean_names() |>
  select(region_name, region_type, state_name, city, county_name, date, rental_price )

rental_data_long
```

    ## # A tibble: 17,284 × 7
    ##    region_name region_type state_name city   county_name date       rental_price
    ##          <dbl> <chr>       <chr>      <chr>  <chr>       <date>            <dbl>
    ##  1       11368 zip         NY         New Y… Queens Cou… 2015-01-31           NA
    ##  2       11368 zip         NY         New Y… Queens Cou… 2015-02-28           NA
    ##  3       11368 zip         NY         New Y… Queens Cou… 2015-03-31           NA
    ##  4       11368 zip         NY         New Y… Queens Cou… 2015-04-30           NA
    ##  5       11368 zip         NY         New Y… Queens Cou… 2015-05-31           NA
    ##  6       11368 zip         NY         New Y… Queens Cou… 2015-06-30           NA
    ##  7       11368 zip         NY         New Y… Queens Cou… 2015-07-31           NA
    ##  8       11368 zip         NY         New Y… Queens Cou… 2015-08-31           NA
    ##  9       11368 zip         NY         New Y… Queens Cou… 2015-09-30           NA
    ## 10       11368 zip         NY         New Y… Queens Cou… 2015-10-31           NA
    ## # ℹ 17,274 more rows
…
``` r
average_rent_by_borough_year <- merged_data %>%
  mutate(year = year(date)) %>% 
  group_by(borough, year) %>%
  summarise(avg_rent = mean(rental_price, na.rm = TRUE))
```

    ## `summarise()` has grouped output by 'borough'. You can override using the
    ## `.groups` argument.

``` r
print(average_rent_by_borough_year)
```

    ## # A tibble: 50 × 3
    ## # Groups:   borough [5]
    ##    borough       year avg_rent
    ##    <chr>        <dbl>    <dbl>
    ##  1 Bronx County  2015    1760.
    ##  2 Bronx County  2016    1520.
    ##  3 Bronx County  2017    1544.
    ##  4 Bronx County  2018    1639.
    ##  5 Bronx County  2019    1706.
    ##  6 Bronx County  2020    1811.
    ##  7 Bronx County  2021    1858.
    ##  8 Bronx County  2022    2054.
    ##  9 Bronx County  2023    2285.
    ## 10 Bronx County  2024    2497.
    ## # ℹ 40 more rows
…
``` r
#first select data in 2020-1-31 and 2021-01-31
january_data <- merged_data %>%
  filter(date %in% as.Date(c("2020-01-31", "2021-01-31")))

compare_zip <- january_data |>
  group_by(region_name) %>%
  pivot_wider(names_from = date, values_from = rental_price) %>%
  mutate(difference=`2021-01-31`-`2020-01-31`) |>
  select(region_name,region_type, `2021-01-31`,`2020-01-31`,difference )
  
compare_zip
```

    ## # A tibble: 151 × 5
    ## # Groups:   region_name [149]
    ##    region_name region_type `2021-01-31` `2020-01-31` difference
    ##          <dbl> <chr>              <dbl>        <dbl>      <dbl>
    ##  1       11368 zip                  NA           NA        NA  
    ##  2       11385 zip                2293.        2510.     -217. 
    ##  3       11208 zip                  NA           NA        NA  
    ##  4       11236 zip                  NA           NA        NA  
    ##  5       10467 zip                1745.        1650.       95.0
    ##  6       11373 zip                  NA           NA        NA  
    ##  7       11226 zip                2181.        2357.     -176. 
    ##  8       11207 zip                2143.        2418.     -275. 
    ##  9       10025 zip                2794.        3286.     -491. 
    ## 10       11214 zip                1798.          NA        NA  
    ## # ℹ 141 more rows
…
    ## `summarise()` has grouped output by 'region_name'. You can override using the
    ## `.groups` argument.

``` r
print(average_price_by_zip_month)
```

    ## # A tibble: 316,056 × 3
    ## # Groups:   region_name [26,338]
    ##    region_name month   avg_price
    ##    <chr>       <chr>       <dbl>
    ##  1 01001       2023-01   295063.
    ##  2 01001       2023-02   295956.
    ##  3 01001       2023-03   297317.
    ##  4 01001       2023-04   299400.
    ##  5 01001       2023-05   301701.
    ##  6 01001       2023-06   303843.
    ##  7 01001       2023-07   306040.
    ##  8 01001       2023-08   308505.
    ##  9 01001       2023-09   311004.
    ## 10 01001       2023-10   312748.
    ## # ℹ 316,046 more rows
…
``` r
zip_level_price <- housing_data_long %>%
  group_by(state_name, region_name) %>%  
  summarise(avg_price = mean(rental_price, na.rm = TRUE))  
```

    ## `summarise()` has grouped output by 'state_name'. You can override using the
    ## `.groups` argument.

``` r
zip_level_price
```

    ## # A tibble: 26,338 × 3
    ## # Groups:   state_name [51]
    ##    state_name region_name avg_price
    ##    <chr>      <chr>           <dbl>
    ##  1 AK         99501         303040.
    ##  2 AK         99502         387141.
    ##  3 AK         99503         297116.
    ##  4 AK         99504         323947.
    ##  5 AK         99507         369313.
    ##  6 AK         99508         304896.
    ##  7 AK         99515         419554.
    ##  8 AK         99516         578255.
    ##  9 AK         99517         357188.
    ## 10 AK         99518         293098.
    ## # ℹ 26,328 more rows
…
ny_2023_rental <- ny_2023_rental %>%
  mutate(region_name = as.character(region_name))

ny_2023_housing <- ny_2023_housing %>%
  mutate(region_name = as.character(region_name))

ny_rent_vs_housing <- ny_2023_rental %>%
  inner_join(ny_2023_housing, by = "region_name")

ny_rent_vs_housing
```

    ## # A tibble: 145 × 3
    ##    region_name avg_rental_price avg_housing_price
    ##    <chr>                  <dbl>             <dbl>
    ##  1 10001                  4910.          1692425.
    ##  2 10002                  4238.          1009289.
    ##  3 10003                  4317.          1422138.
    ##  4 10004                  3846.          1156242.
    ##  5 10005                  4005.          1120276.
    ##  6 10006                  4388.          1003514.
    ##  7 10007                  7821.          2994558.
    ##  8 10009                  4108.          1001662.
    ##  9 10010                  4433.          1338932.
    ## 10 10011                  4930.          1623876.
    ## # ℹ 135 more rows
…
